<?xml version="1.0" encoding="utf-8"?>
<!-- Generator: Adobe Illustrator 22.1.0, SVG Export Plug-In . SVG Version: 6.00 Build 0)  -->
<svg version="1.1" id="Capa_1" xmlns="http://www.w3.org/2000/svg" xmlns:xlink="http://www.w3.org/1999/xlink" x="0px" y="0px"
	 viewBox="0 0 512 512" style="enable-background:new 0 0 512 512;" xml:space="preserve">
<g>
	<path d="M474.7,152.5h-56.2c-8.7,0-19.2,5.8-24,13l-41.3,64c-3.7,5.8-12.6,11.6-19.2,13l-50.4,9.5c-8.9,1.7-16.1,10.5-16.1,19.4
		v63.4c0,9.3,7.6,16.9,16.9,16.9h41.5c5.8,19.6,23.9,34.1,45.4,34.1s39.6-14.3,45.4-34.1h58.2c9.3,0,16.9-7.6,16.9-16.9V169.5
		C491.6,160,484,152.5,474.7,152.5L474.7,152.5z M371,361.9c-13,0-23.5-10.5-23.5-23.5c0-13,10.5-23.5,23.5-23.5
		c13,0,23.5,10.5,23.5,23.5C394.4,351.4,384,361.9,371,361.9L371,361.9z M474.1,232c0,6.2-5,11.2-11.2,11.2h-76.4
		c-6.2,0-8.5-4.3-5.4-9.5l29.9-49.1c3.3-5.2,10.9-9.5,17.1-9.5h34.9c6.2,0,11.2,5,11.2,11.2V232z"/>
	<path d="M227.3,252.1l-50.4-9.5c-6.8-1.4-15.5-7.2-19.2-13l-41.3-64c-4.7-7.4-15.3-13-24-13H36.1c-9.3,0-16.9,7.6-16.9,16.9v165.2
		c0,9.3,7.6,16.9,16.9,16.9h58.4c5.8,19.6,23.9,34.1,45.4,34.1s39.6-14.3,45.4-34.1h41.3c9.3,0,16.9-7.6,16.9-16.9v-63.2
		C243.4,262.4,236,253.7,227.3,252.1L227.3,252.1z M47.7,243.2c-6.2,0-11.2-5-11.2-11.2v-45.8c0-6.2,5-11.2,11.2-11.2h34.9
		c6.2,0,13.8,4.3,17.1,9.5l29.9,49.1c3.3,5.2,0.8,9.5-5.4,9.5L47.7,243.2L47.7,243.2z M139.6,361.9c-13,0-23.5-10.5-23.5-23.5
		c0-13,10.5-23.5,23.5-23.5c13,0,23.5,10.5,23.5,23.5C163.1,351.4,152.6,361.9,139.6,361.9L139.6,361.9z"/>
	<path d="M226.3,239.9h0.2c3.7,0,6.6-2.9,6.6-6.4l1.2-36.1c0.2-3.7-2.7-6.8-6.4-7h-0.2c-3.7,0-6.6,2.9-6.6,6.4l-1.2,36.1
		C219.7,236.6,222.6,239.7,226.3,239.9L226.3,239.9z"/>
	<path d="M263.5,196.7c-3.3-1.7-7.4-0.4-8.9,2.9l-15.3,30.6c-1.7,3.3-0.4,7.4,2.9,8.9c1,0.6,1.9,0.8,2.9,0.8c2.5,0,4.8-1.4,6-3.7
		l15.3-30.6C268.2,202.3,266.8,198.2,263.5,196.7L263.5,196.7z"/>
	<path d="M289.5,225.8c-2.1-2.9-6.4-3.7-9.3-1.4l-25.6,18.8c-2.9,2.1-3.7,6.4-1.4,9.3c1.4,1.7,3.3,2.7,5.4,2.7
		c1.4,0,2.7-0.4,3.9-1.4l25.6-18.8C291.1,232.9,291.7,228.9,289.5,225.8L289.5,225.8z"/>
</g>
</svg>
